{
  "$schema": "http://json-schema.org/draft-07/schema#",
  "description": "Observability settings",
  "type": "object",
  "additionalProperties": false,
  "properties": {
    "fetch_observability_alerts_from_cloud": {
      "type": "boolean",
      "description": "Should this instance fetch alerts from observe.gitlab.com. Airgapped SM installations should turn this off."
    }
  }
}
